INTRODUCTION:
1) LinkedList
    - Singly LinkedList
    - Doubly LinkedList
    - Singly Circular
    - Doubly Circular 
2) Stack
3) Queue
4) Time Complexity
5) Searching Algorithms
6) Sorting Algorithms
7) Tree
8) Graph

-------------------------------------------------------------------------------------------------------------------------------------------------------
 LinkedList
-------------------------------------------------------------------------------------------------------------------------------------------------------
- LinkedList is a self referential structure

